RTL_Synthesis/dump_vcd.vcd
$date
    Mar  2, 2026  23:11:11
$end
$version
    TOOL:	xmsim(64)	22.09-s003
$end
$timescale
    1 ps
$end

$scope module testbench_top $end
$var reg       1 !    clk $end
$var reg       1 "    reset $end

$scope module in $end
$var wire      1 #    clk  $end
$var wire      1 $    reset  $end
$var reg       8 %    data_in [7:0] $end
$var reg       8 &    data_out [7:0] $end
$var reg       1 '    empty $end
$var reg       1 (    full $end
$var reg       1 )    rd $end
$var reg       1 *    wr $end

$scope clocking driver_cb $end
$var reg       1 +    wr $end
$var reg       1 ,    rd $end
$var reg       8 -    data_in [7:0] $end
$upscope $end


$scope clocking monitor_cb $end
$var reg       1 .    wr $end
$var reg       1 /    rd $end
$var reg       8 0    data_in [7:0] $end
$var reg       8 1    data_out [7:0] $end
$var reg       1 2    empty $end
$var reg       1 3    full $end
$upscope $end

$upscope $end


$scope module dut $end
$var parameter 32 4    DATA_WIDTH $end
$var parameter 32 5    DEPTH $end
$var wire      1 #    clk  $end
$var wire      1 $    rst  $end
$var wire      1 6    wr_en  $end
$var wire      1 7    rd_en  $end
$var wire      8 8    wdata [7:0] $end
$var reg       8 9    rdata [7:0] $end
$var reg       1 :    full $end
$var reg       1 ;    empty $end
$var parameter 32 <    ADDR_WIDTH $end
$var reg       8 =    mem[0] [7:0] $end
$var reg       8 >    mem[1] [7:0] $end
$var reg       8 ?    mem[2] [7:0] $end
$var reg       8 @    mem[3] [7:0] $end
$var reg       8 A    mem[4] [7:0] $end
$var reg       8 B    mem[5] [7:0] $end
$var reg       8 C    mem[6] [7:0] $end
$var reg       8 D    mem[7] [7:0] $end
$var reg       8 E    mem[8] [7:0] $end
$var reg       8 F    mem[9] [7:0] $end
$var reg       8 G    mem[10] [7:0] $end
$var reg       8 H    mem[11] [7:0] $end
$var reg       8 I    mem[12] [7:0] $end
$var reg       8 J    mem[13] [7:0] $end
$var reg       8 K    mem[14] [7:0] $end
$var reg       8 L    mem[15] [7:0] $end
$var reg       5 M    wr_ptr [4:0] $end
$var reg       5 N    rd_ptr [4:0] $end
$upscope $end

$upscope $end

$enddefinitions $end
$dumpvars
b100 <
b10000 5
b1000 4
0!
1"
0#
1$
bx %
b0 &
1'
0(
x)
x*
x+
x,
bx -
x.
x/
bx 0
bx 1
x2
x3
x6
x7
bx 8
b0 9
0:
1;
bx =
bx >
bx ?
bx @
bx A
bx B
bx C
bx D
bx E
bx F
bx G
bx H
bx I
bx J
bx K
bx L
b0 M
b0 N
$end
#2500
1!
1#
b0 1
12
03
0*
0+
0)
0,
b10011000 %
b10011000 -
b10011000 8
07
06
#5000
0!
0#
#7500
1!
1#
0.
0/
b10011000 0
1*
1+
b11000101 %
b11000101 -
b11000101 8
16
#10000
0"
0!
0#
0$
#12500
1!
1#
1.
b11000101 0
b11000101 =
b1 M
0;
0'
1)
1,
b100000 %
b100000 -
b100000 8
17
#15000
0!
0#
#17500
1!
1#
1/
b100000 0
02
b100000 >
b10 M
b11000101 9
b1 N
b11000101 &
0*
0+
b10100111 %
b10100111 -
b10100111 8
06
#20000
0!
0#
#22500
1!
1#
0.
b10100111 0
b11000101 1
b100000 9
b10 N
1;
1'
b100000 &
b1011101 %
b1011101 -
b1011101 8
#25000
0!
0#
#27500
1!
1#
b1011101 0
b100000 1
12
1*
1+
b111111 %
b111111 -
b111111 8
16
#30000
0!
0#
#32500
1!
1#
1.
b111111 0
b111111 ?
b11 M
0;
0'
0)
0,
b1001111 %
b1001111 -
b1001111 8
07
#35000
0!
0#
#37500
1!
1#
0/
b1001111 0
02
b1001111 @
b100 M
b10001100 %
b10001100 -
b10001100 8
#40000
0!
0#
#42500
1!
1#
b10001100 0
b10001100 A
b101 M
0*
0+
1)
1,
b11110110 %
b11110110 -
b11110110 8
17
06
#45000
0!
0#
#47500
1!
1#
0.
1/
b11110110 0
b111111 9
b11 N
b111111 &
1*
1+
b10001110 %
b10001110 -
b10001110 8
16
#50000
0!
0#
#52500
1!
1#
1.
b10001110 0
b111111 1
b10001110 B
b110 M
b1001111 9
b100 N
b1001111 &
b1010011 %
b1010011 -
b1010011 8
#55000
0!
0#
#57500
1!
1#
b1010011 0
b1001111 1
b1010011 C
b111 M
b10001100 9
b101 N
b10001100 &
0)
0,
b1000101 %
b1000101 -
b1000101 8
07
#60000
0!
0#
#62500
1!
1#
0/
b1000101 0
b10001100 1
b1000101 D
b1000 M
0*
0+
b1100101 %
b1100101 -
b1100101 8
06
#65000
0!
0#
#67500
1!
1#
0.
b1100101 0
1*
1+
1)
1,
b10110010 %
b10110010 -
b10110010 8
17
16
#70000
0!
0#
#72500
1!
1#
1.
1/
b10110010 0
b10110010 E
b1001 M
b10001110 9
b110 N
b10001110 &
0)
0,
b101100 %
b101100 -
b101100 8
07
#75000
0!
0#
#77500
1!
1#
0/
b101100 0
b10001110 1
b101100 F
b1010 M
1)
1,
b1111100 %
b1111100 -
b1111100 8
17
#80000
0!
0#
#82500
1!
1#
1/
b1111100 0
b1111100 G
b1011 M
b1010011 9
b111 N
b1010011 &
b10101001 %
b10101001 -
b10101001 8
#85000
0!
0#
#87500
1!
1#
b10101001 0
b1010011 1
b10101001 H
b1100 M
b1000101 9
b1000 N
b1000101 &
b100 %
b100 -
b100 8
#90000
0!
0#
#92500
1!
1#
b100 0
b1000101 1
b100 I
b1101 M
b10110010 9
b1001 N
b10110010 &
b10001100 %
b10001100 -
b10001100 8
#95000
0!
0#
#97500
1!
1#
b10001100 0
b10110010 1
b10001100 J
b1110 M
b101100 9
b1010 N
b101100 &
b1000001 %
b1000001 -
b1000001 8
#100000
0!
0#
#102500
1!
1#
b1000001 0
b101100 1
b1000001 K
b1111 M
b1111100 9
b1011 N
b1111100 &
b100011 %
b100011 -
b100011 8
#105000
0!
0#
#107500
1!
1#
b100011 0
b1111100 1
b100011 L
b10000 M
b10101001 9
b1100 N
b10101001 &
b110011 %
b110011 -
b110011 8
#110000
0!
0#
#112500
1!
1#
b110011 0
b10101001 1
b110011 =
b10001 M
b100 9
b1101 N
b100 &
b1110000 %
b1110000 -
b1110000 8
#115000
0!
0#
#117500
1!
1#
b1110000 0
b100 1
b1110000 >
b10010 M
b10001100 9
b1110 N
b10001100 &
#120000
0!
0#
#122500
1!
1#
b10001100 1
b1110000 ?
b10011 M
b1000001 9
b1111 N
b1000001 &
#125000
0!
0#
#127500
1!
1#
b1000001 1
b1110000 @
b10100 M
b100011 9
b10000 N
b100011 &
#130000
0!
0#
#132500
1!
1#
b100011 1
b1110000 A
b10101 M
b110011 9
b10001 N
b110011 &
#135000
0!
0#
#137500
1!
1#
b110011 1
b1110000 B
b10110 M
b1110000 9
b10010 N
b1110000 &
#140000
0!
0#
#142500
1!
1#
b1110000 1
b1110000 C
b10111 M
b10011 N
#145000
0!
0#
#147500
1!
1#
b1110000 D
b11000 M
b10100 N
#150000
0!
0#
#152500
1!
1#
b1110000 E
b11001 M
b10101 N
#155000
0!
0#
#157500
1!
1#
b1110000 F
b11010 M
b10110 N
#160000
0!
0#
#162500
1!
1#
b1110000 G
b11011 M
b10111 N
#165000
0!
0#
#167500
1!
1#
b1110000 H
b11100 M
b11000 N
#170000
0!
0#
#172500
1!
1#
b1110000 I
b11101 M
b11001 N
#175000
0!
0#
#177500
1!
1#
b1110000 J
b11110 M
b11010 N
#180000
0!
0#
#182500
1!
1#
b1110000 K
b11111 M
b11011 N
#185000
0!
0#
#187500
1!
1#
b1110000 L
b0 M
b11100 N
#190000
0!
0#
#192500
1!
1#
b1110000 =
b1 M
b11101 N
#195000
0!
0#
#197500
1!
1#
b10 M
b11110 N
#200000
0!
0#
#202500
1!
1#
b11 M
b11111 N
#205000
0!
0#
#207500
1!
1#
b100 M
b0 N
#210000
0!
0#
#212500
1!
1#
b101 M
b1 N
#215000
0!
0#
#217500
1!
1#
b110 M
b10 N
#220000
0!
0#
#222500
1!
1#
b111 M
b11 N
#225000
0!
0#
#227500
1!
1#
b1000 M
b100 N
#230000
0!
0#
#232500
1!
1#
b1001 M
b101 N
#235000
0!
0#
#237500
1!
1#
b1010 M
b110 N
#240000
0!
0#
#242500
1!
1#
b1011 M
b111 N
#245000
0!
0#
#247500
1!
1#
b1100 M
b1000 N
#250000
0!
0#
#252500
1!
1#
b1101 M
b1001 N
#255000
0!
0#
#257500
1!
1#
b1110 M
b1010 N
#260000
0!
0#
#262500
1!
1#
b1111 M
b1011 N
#265000
0!
0#
#267500
1!
1#
b10000 M
b1100 N
#270000
0!
0#
#272500
1!
1#
b10001 M
b1101 N
#275000
0!
0#
#277500
1!
1#
b10010 M
b1110 N
#280000
0!
0#
#282500
1!
1#
b10011 M
b1111 N
#285000
0!
0#
#287500
1!
1#
b10100 M
b10000 N
#290000
0!
0#
#292500
1!
1#
b10101 M
b10001 N
#295000
0!
0#
#297500
1!
1#
b10110 M
b10010 N
#300000
0!
0#
#302500
1!
1#
b10111 M
b10011 N
#305000
0!
0#
#307500
1!
1#
b11000 M
b10100 N
#310000
0!
0#
#312500
1!
1#
b11001 M
b10101 N
#315000
0!
0#
#317500
1!
1#
b11010 M
b10110 N
#320000
0!
0#
#322500
1!
1#
b11011 M
b10111 N
#325000
0!
0#
#327500
1!
1#
b11100 M
b11000 N
#330000
0!
0#
#332500
1!
1#
b11101 M
b11001 N
#335000
0!
0#
#337500
1!
1#
b11110 M
b11010 N
#340000
0!
0#
#342500
1!
1#
b11111 M
b11011 N
#345000
0!
0#
#347500
1!
1#
b0 M
b11100 N
#350000
0!
0#
#352500
1!
1#
b1 M
b11101 N
#355000
0!
0#
#357500
1!
1#
b10 M
b11110 N
#360000
0!
0#
#362500
1!
1#
b11 M
b11111 N
#365000
0!
0#
#367500
1!
1#
b100 M
b0 N
#370000
0!
0#
#372500
1!
1#
b101 M
b1 N
#375000
0!
0#
#377500
1!
1#
b110 M
b10 N
#380000
0!
0#
#382500
1!
1#
b111 M
b11 N
#385000
0!
0#
#387500
1!
1#
b1000 M
b100 N
#390000
0!
0#
#392500
1!
1#
b1001 M
b101 N
#395000
0!
0#
#397500
1!
1#
b1010 M
b110 N
#400000
0!
0#
#402500
1!
1#
b1011 M
b111 N
#405000
0!
0#
#407500
1!
1#
b1100 M
b1000 N
#410000
0!
0#
#412500
1!
1#
b1101 M
b1001 N
#415000
0!
0#
#417500
1!
1#
b1110 M
b1010 N
#420000
0!
0#
#422500
1!
1#
b1111 M
b1011 N
#425000
0!
0#
#427500
1!
1#
b10000 M
b1100 N
#430000
0!
0#
#432500
1!
1#
b10001 M
b1101 N
#435000
0!
0#
#437500
1!
1#
b10010 M
b1110 N
#440000
0!
0#
#442500
1!
1#
b10011 M
b1111 N
#445000
0!
0#
#447500
1!
1#
b10100 M
b10000 N
#450000
0!
0#
#452500
1!
1#
b10101 M
b10001 N
#455000
0!
0#
#457500
1!
1#
b10110 M
b10010 N
#460000
0!
0#
#462500
1!
1#
b10111 M
b10011 N
#465000
0!
0#
#467500
1!
1#
b11000 M
b10100 N
#470000
0!
0#
#472500
1!
1#
b11001 M
b10101 N
#475000
0!
0#
#477500
1!
1#
b11010 M
b10110 N
#480000
0!
0#
#482500
1!
1#
b11011 M
b10111 N
#485000
0!
0#
#487500
1!
1#
b11100 M
b11000 N
#490000
0!
0#
#492500
1!
1#
b11101 M
b11001 N
#495000
0!
0#
#497500
1!
1#
b11110 M
b11010 N
#500000
0!
0#
#502500
1!
1#
b11111 M
b11011 N
#505000
0!
0#
#507500
1!
1#
b0 M
b11100 N
#510000
0!
0#
#512500
1!
1#
b1 M
b11101 N
#515000
0!
0#
#517500
1!
1#
b10 M
b11110 N
#520000
0!
0#
#522500
1!
1#
b11 M
b11111 N
#525000
0!
0#
#527500
1!
1#
b100 M
b0 N
#530000
0!
0#
#532500
1!
1#
b101 M
b1 N
#535000
0!
0#
#537500
1!
1#
b110 M
b10 N
#540000
0!
0#
#542500
1!
1#
b111 M
b11 N
#545000
0!
0#
#547500
1!
1#
b1000 M
b100 N
#550000
0!
0#
#552500
1!
1#
b1001 M
b101 N
#555000
0!
0#
#557500
1!
1#
b1010 M
b110 N
#560000
0!
0#
#562500
1!
1#
b1011 M
b111 N
#565000
0!
0#
#567500
1!
1#
b1100 M
b1000 N
#570000
0!
0#
#572500
1!
1#
b1101 M
b1001 N
#575000
0!
0#
#577500
1!
1#
b1110 M
b1010 N
#580000
0!
0#
#582500
1!
1#
b1111 M
b1011 N
#585000
0!
0#
#587500
1!
1#
b10000 M
b1100 N
#590000
0!
0#
#592500
1!
1#
b10001 M
b1101 N
#595000
0!
0#
#597500
1!
1#
b10010 M
b1110 N
#600000
0!
0#
#602500
1!
1#
b10011 M
b1111 N
#605000
0!
0#
#607500
1!
1#
b10100 M
b10000 N
#610000
0!
0#
#612500
1!
1#
b10101 M
b10001 N
